#! /usr/bin/vvp
:ivl_version "10.1 (stable)";
:ivl_delay_selection "TYPICAL";
:vpi_time_precision + 0;
:vpi_module "system";
:vpi_module "vhdl_sys";
:vpi_module "v2005_math";
:vpi_module "va_math";
S_0x558edafa2a90 .scope module, "retry_buffer_tb" "retry_buffer_tb" 2 3;
 .timescale 0 0;
v0x558edafc48d0_0 .net "RETRY_out", 7 0, L_0x558edafc5650;  1 drivers
v0x558edafc49e0_0 .var "SEQ_NUM", 11 0;
v0x558edafc4ab0_0 .var "TLP_out", 7 0;
v0x558edafc4bd0_0 .var "TLP_retrans", 7 0;
v0x558edafc4c70_0 .var "clk", 0 0;
v0x558edafc4d60_0 .var "control_retry", 0 0;
v0x558edafc4e00_0 .var "reset", 0 0;
v0x558edafc4ea0_0 .var "retransmision", 0 0;
v0x558edafc4f70_0 .net "retry_LCRC", 0 0, v0x558edafc3f70_0;  1 drivers
v0x558edafc5040_0 .net "retry_TLP", 1 0, v0x558edafc30c0_0;  1 drivers
v0x558edafc50e0_0 .net "retry_control", 0 0, v0x558edafc40f0_0;  1 drivers
v0x558edafc5180_0 .net "retry_replay", 0 0, v0x558edafc4190_0;  1 drivers
v0x558edafc5250_0 .net "retry_timer", 0 0, v0x558edafc4250_0;  1 drivers
v0x558edafc5320_0 .var "timer_out", 0 0;
v0x558edafc5410_0 .var "timer_retry", 0 0;
v0x558edafc54b0_0 .var "tlp_start_end", 0 0;
S_0x558edafa2c10 .scope module, "retry_buffer" "RETRY_BUFFER" 2 81, 3 1 0, S_0x558edafa2a90;
 .timescale 0 0;
    .port_info 0 /INPUT 1 "clk"
    .port_info 1 /INPUT 1 "reset"
    .port_info 2 /INPUT 12 "SEQ_NUM"
    .port_info 3 /INPUT 1 "tlp_start_end"
    .port_info 4 /INPUT 8 "TLP_out"
    .port_info 5 /INPUT 1 "control_retry"
    .port_info 6 /INPUT 1 "timer_retry"
    .port_info 7 /INPUT 1 "timer_out"
    .port_info 8 /INPUT 1 "retransmision"
    .port_info 9 /INPUT 8 "TLP_retrans"
    .port_info 10 /OUTPUT 1 "retry_control"
    .port_info 11 /OUTPUT 1 "retry_replay"
    .port_info 12 /OUTPUT 1 "retry_timer"
    .port_info 13 /OUTPUT 1 "retry_LCRC"
    .port_info 14 /OUTPUT 2 "retry_TLP"
    .port_info 15 /OUTPUT 8 "RETRY_out"
L_0x7f16dcaaa018 .functor BUFT 1, C4<1>, C4<0>, C4<0>, C4<0>;
L_0x558edaf7d1d0 .functor XNOR 1, v0x558edafc4ea0_0, L_0x7f16dcaaa018, C4<0>, C4<0>;
v0x558edafc3350_0 .net "EMPTY", 0 0, L_0x558edafd5ac0;  1 drivers
v0x558edafc3440_0 .net "FULL", 0 0, L_0x558edafd5f50;  1 drivers
v0x558edafc3510_0 .net "RETRY_out", 7 0, L_0x558edafc5650;  alias, 1 drivers
v0x558edafc35e0_0 .net "SEQ_NUM", 11 0, v0x558edafc49e0_0;  1 drivers
v0x558edafc36a0_0 .net "TLP_out", 7 0, v0x558edafc4ab0_0;  1 drivers
v0x558edafc37b0_0 .net "TLP_retrans", 7 0, v0x558edafc4bd0_0;  1 drivers
v0x558edafc3870_0 .net/2u *"_s0", 0 0, L_0x7f16dcaaa018;  1 drivers
v0x558edafc3950_0 .net *"_s2", 0 0, L_0x558edaf7d1d0;  1 drivers
v0x558edafc3a10_0 .net "clk", 0 0, v0x558edafc4c70_0;  1 drivers
v0x558edafc3ab0_0 .net "control_retry", 0 0, v0x558edafc4d60_0;  1 drivers
v0x558edafc3b70_0 .net "fifo_out", 7 0, v0x558edafc2480_0;  1 drivers
v0x558edafc3c30_0 .net "index", 2 0, v0x558edafc2f80_0;  1 drivers
v0x558edafc3d20_0 .net "readCounter", 2 0, v0x558edafc2720_0;  1 drivers
v0x558edafc3de0_0 .net "reset", 0 0, v0x558edafc4e00_0;  1 drivers
v0x558edafc3ed0_0 .net "retransmision", 0 0, v0x558edafc4ea0_0;  1 drivers
v0x558edafc3f70_0 .var "retry_LCRC", 0 0;
v0x558edafc4030_0 .net "retry_TLP", 1 0, v0x558edafc30c0_0;  alias, 1 drivers
v0x558edafc40f0_0 .var "retry_control", 0 0;
v0x558edafc4190_0 .var "retry_replay", 0 0;
v0x558edafc4250_0 .var "retry_timer", 0 0;
v0x558edafc4310_0 .net "store_adress", 0 0, v0x558edafc3160_0;  1 drivers
v0x558edafc4400_0 .net "timer_out", 0 0, v0x558edafc5320_0;  1 drivers
v0x558edafc44a0_0 .net "timer_retry", 0 0, v0x558edafc5410_0;  1 drivers
v0x558edafc4540_0 .net "tlp_start_end", 0 0, v0x558edafc54b0_0;  1 drivers
v0x558edafc4630_0 .net "writeCounter", 2 0, v0x558edafc2a40_0;  1 drivers
L_0x558edafc5650 .functor MUXZ 8, v0x558edafc2480_0, v0x558edafc4bd0_0, L_0x558edaf7d1d0, C4<>;
S_0x558edafa2f20 .scope module, "fifo_buffer" "buffer" 3 46, 3 125 0, S_0x558edafa2c10;
 .timescale 0 0;
    .port_info 0 /INPUT 1 "clk"
    .port_info 1 /INPUT 1 "reset"
    .port_info 2 /INPUT 8 "data_in"
    .port_info 3 /INPUT 1 "Rd"
    .port_info 4 /INPUT 1 "Wr"
    .port_info 5 /INPUT 3 "index"
    .port_info 6 /INPUT 1 "timer_out"
    .port_info 7 /OUTPUT 8 "dataOut"
    .port_info 8 /OUTPUT 1 "EMPTY"
    .port_info 9 /OUTPUT 1 "FULL"
    .port_info 10 /OUTPUT 3 "readCounter"
    .port_info 11 /OUTPUT 3 "writeCounter"
v0x558edafa05a0_0 .var "Count", 2 0;
v0x558edafa07b0_0 .net "EMPTY", 0 0, L_0x558edafd5ac0;  alias, 1 drivers
v0x558edafa1400 .array "FIFO", 7 0, 7 0;
v0x558edafa15a0_0 .net "FULL", 0 0, L_0x558edafd5f50;  alias, 1 drivers
v0x558edafa17b0_0 .net "Rd", 0 0, v0x558edafc3160_0;  alias, 1 drivers
v0x558edafa19c0_0 .net "Wr", 0 0, v0x558edafc54b0_0;  alias, 1 drivers
v0x558edaf95a40_0 .net *"_s0", 31 0, L_0x558edafc5830;  1 drivers
L_0x7f16dcaaa138 .functor BUFT 1, C4<0>, C4<0>, C4<0>, C4<0>;
v0x558edafc1a60_0 .net/2u *"_s10", 0 0, L_0x7f16dcaaa138;  1 drivers
v0x558edafc1b40_0 .net *"_s14", 31 0, L_0x558edafd5ca0;  1 drivers
L_0x7f16dcaaa180 .functor BUFT 1, C4<00000000000000000000000000000>, C4<0>, C4<0>, C4<0>;
v0x558edafc1c20_0 .net *"_s17", 28 0, L_0x7f16dcaaa180;  1 drivers
L_0x7f16dcaaa1c8 .functor BUFT 1, C4<00000000000000000000000000001000>, C4<0>, C4<0>, C4<0>;
v0x558edafc1d00_0 .net/2u *"_s18", 31 0, L_0x7f16dcaaa1c8;  1 drivers
v0x558edafc1de0_0 .net *"_s20", 0 0, L_0x558edafd5e10;  1 drivers
L_0x7f16dcaaa210 .functor BUFT 1, C4<1>, C4<0>, C4<0>, C4<0>;
v0x558edafc1ea0_0 .net/2u *"_s22", 0 0, L_0x7f16dcaaa210;  1 drivers
L_0x7f16dcaaa258 .functor BUFT 1, C4<0>, C4<0>, C4<0>, C4<0>;
v0x558edafc1f80_0 .net/2u *"_s24", 0 0, L_0x7f16dcaaa258;  1 drivers
L_0x7f16dcaaa060 .functor BUFT 1, C4<00000000000000000000000000000>, C4<0>, C4<0>, C4<0>;
v0x558edafc2060_0 .net *"_s3", 28 0, L_0x7f16dcaaa060;  1 drivers
L_0x7f16dcaaa0a8 .functor BUFT 1, C4<00000000000000000000000000000000>, C4<0>, C4<0>, C4<0>;
v0x558edafc2140_0 .net/2u *"_s4", 31 0, L_0x7f16dcaaa0a8;  1 drivers
v0x558edafc2220_0 .net *"_s6", 0 0, L_0x558edafd5930;  1 drivers
L_0x7f16dcaaa0f0 .functor BUFT 1, C4<1>, C4<0>, C4<0>, C4<0>;
v0x558edafc22e0_0 .net/2u *"_s8", 0 0, L_0x7f16dcaaa0f0;  1 drivers
v0x558edafc23c0_0 .net "clk", 0 0, v0x558edafc4c70_0;  alias, 1 drivers
v0x558edafc2480_0 .var "dataOut", 7 0;
v0x558edafc2560_0 .net "data_in", 7 0, v0x558edafc4ab0_0;  alias, 1 drivers
v0x558edafc2640_0 .net "index", 2 0, v0x558edafc2f80_0;  alias, 1 drivers
v0x558edafc2720_0 .var "readCounter", 2 0;
v0x558edafc2800_0 .var "read_flop", 0 0;
v0x558edafc28c0_0 .net "reset", 0 0, v0x558edafc4e00_0;  alias, 1 drivers
v0x558edafc2980_0 .net "timer_out", 0 0, v0x558edafc5320_0;  alias, 1 drivers
v0x558edafc2a40_0 .var "writeCounter", 2 0;
E_0x558edaf73170 .event posedge, v0x558edafc23c0_0;
L_0x558edafc5830 .concat [ 3 29 0 0], v0x558edafa05a0_0, L_0x7f16dcaaa060;
L_0x558edafd5930 .cmp/eq 32, L_0x558edafc5830, L_0x7f16dcaaa0a8;
L_0x558edafd5ac0 .functor MUXZ 1, L_0x7f16dcaaa138, L_0x7f16dcaaa0f0, L_0x558edafd5930, C4<>;
L_0x558edafd5ca0 .concat [ 3 29 0 0], v0x558edafa05a0_0, L_0x7f16dcaaa180;
L_0x558edafd5e10 .cmp/eq 32, L_0x558edafd5ca0, L_0x7f16dcaaa1c8;
L_0x558edafd5f50 .functor MUXZ 1, L_0x7f16dcaaa258, L_0x7f16dcaaa210, L_0x558edafd5e10, C4<>;
S_0x558edafc2ca0 .scope module, "receiver" "receiving" 3 28, 3 60 0, S_0x558edafa2c10;
 .timescale 0 0;
    .port_info 0 /INPUT 1 "clk"
    .port_info 1 /INPUT 1 "reset"
    .port_info 2 /INPUT 1 "tlp_start_end"
    .port_info 3 /OUTPUT 3 "index"
    .port_info 4 /OUTPUT 2 "retry_TLP"
    .port_info 5 /OUTPUT 1 "store_adress"
v0x558edafc2ee0_0 .net "clk", 0 0, v0x558edafc4c70_0;  alias, 1 drivers
v0x558edafc2f80_0 .var "index", 2 0;
v0x558edafc3020_0 .net "reset", 0 0, v0x558edafc4e00_0;  alias, 1 drivers
v0x558edafc30c0_0 .var "retry_TLP", 1 0;
v0x558edafc3160_0 .var "store_adress", 0 0;
v0x558edafc3250_0 .net "tlp_start_end", 0 0, v0x558edafc54b0_0;  alias, 1 drivers
    .scope S_0x558edafc2ca0;
T_0 ;
    %wait E_0x558edaf73170;
    %load/vec4 v0x558edafc3020_0;
    %nor/r;
    %flag_set/vec4 8;
    %jmp/0xz  T_0.0, 8;
    %pushi/vec4 0, 0, 2;
    %assign/vec4 v0x558edafc30c0_0, 0;
    %pushi/vec4 0, 0, 1;
    %assign/vec4 v0x558edafc3160_0, 0;
    %pushi/vec4 0, 0, 3;
    %assign/vec4 v0x558edafc2f80_0, 0;
    %jmp T_0.1;
T_0.0 ;
    %load/vec4 v0x558edafc3250_0;
    %flag_set/vec4 8;
    %jmp/0xz  T_0.2, 8;
    %load/vec4 v0x558edafc2f80_0;
    %addi 1, 0, 3;
    %assign/vec4 v0x558edafc2f80_0, 0;
T_0.2 ;
    %load/vec4 v0x558edafc3250_0;
    %pad/u 32;
    %cmpi/e 0, 0, 32;
    %jmp/0xz  T_0.4, 4;
    %pushi/vec4 3, 0, 2;
    %assign/vec4 v0x558edafc30c0_0, 0;
    %pushi/vec4 0, 0, 1;
    %assign/vec4 v0x558edafc3160_0, 0;
    %jmp T_0.5;
T_0.4 ;
    %load/vec4 v0x558edafc3250_0;
    %pad/u 32;
    %cmpi/e 1, 0, 32;
    %jmp/0xz  T_0.6, 4;
    %pushi/vec4 0, 0, 2;
    %assign/vec4 v0x558edafc30c0_0, 0;
    %pushi/vec4 1, 0, 1;
    %assign/vec4 v0x558edafc3160_0, 0;
T_0.6 ;
T_0.5 ;
T_0.1 ;
    %jmp T_0;
    .thread T_0;
    .scope S_0x558edafa2f20;
T_1 ;
    %pushi/vec4 0, 0, 3;
    %store/vec4 v0x558edafa05a0_0, 0, 3;
    %end;
    .thread T_1;
    .scope S_0x558edafa2f20;
T_2 ;
    %wait E_0x558edaf73170;
    %load/vec4 v0x558edafc28c0_0;
    %nor/r;
    %flag_set/vec4 8;
    %jmp/0xz  T_2.0, 8;
    %pushi/vec4 0, 0, 3;
    %assign/vec4 v0x558edafc2720_0, 0;
    %pushi/vec4 0, 0, 3;
    %assign/vec4 v0x558edafc2a40_0, 0;
    %pushi/vec4 0, 0, 1;
    %assign/vec4 v0x558edafc2800_0, 0;
    %jmp T_2.1;
T_2.0 ;
    %load/vec4 v0x558edafa17b0_0;
    %assign/vec4 v0x558edafc2800_0, 0;
    %load/vec4 v0x558edafc2800_0;
    %pushi/vec4 1, 0, 1;
    %cmp/e;
    %flag_get/vec4 4;
    %load/vec4 v0x558edafa05a0_0;
    %pad/u 32;
    %pushi/vec4 0, 0, 32;
    %cmp/e;
    %flag_get/vec4 4;
    %inv;
    %and;
    %flag_set/vec4 8;
    %jmp/0xz  T_2.2, 8;
    %load/vec4 v0x558edafc2720_0;
    %pad/u 5;
    %ix/vec4 4;
    %load/vec4a v0x558edafa1400, 4;
    %assign/vec4 v0x558edafc2480_0, 0;
    %load/vec4 v0x558edafc2720_0;
    %addi 1, 0, 3;
    %assign/vec4 v0x558edafc2720_0, 0;
    %jmp T_2.3;
T_2.2 ;
    %load/vec4 v0x558edafa19c0_0;
    %pushi/vec4 1, 0, 1;
    %cmp/e;
    %flag_get/vec4 4;
    %load/vec4 v0x558edafa05a0_0;
    %pad/u 32;
    %cmpi/u 8, 0, 32;
    %flag_get/vec4 5;
    %and;
    %flag_set/vec4 8;
    %jmp/0xz  T_2.4, 8;
    %load/vec4 v0x558edafc2560_0;
    %load/vec4 v0x558edafc2a40_0;
    %pad/u 5;
    %ix/vec4 4;
    %store/vec4a v0x558edafa1400, 4, 0;
    %load/vec4 v0x558edafc2a40_0;
    %addi 1, 0, 3;
    %assign/vec4 v0x558edafc2a40_0, 0;
    %jmp T_2.5;
T_2.4 ;
    %load/vec4 v0x558edafc2640_0;
    %pad/u 32;
    %pushi/vec4 0, 0, 32;
    %cmp/e;
    %flag_get/vec4 4;
    %inv;
    %load/vec4 v0x558edafa19c0_0;
    %pushi/vec4 1, 0, 1;
    %cmp/e;
    %flag_get/vec4 4;
    %and;
    %load/vec4 v0x558edafa05a0_0;
    %pad/u 32;
    %cmpi/u 8, 0, 32;
    %flag_get/vec4 5;
    %and;
    %flag_set/vec4 8;
    %jmp/0xz  T_2.6, 8;
    %load/vec4 v0x558edafc2560_0;
    %load/vec4 v0x558edafc2a40_0;
    %pad/u 5;
    %ix/vec4 4;
    %store/vec4a v0x558edafa1400, 4, 0;
    %load/vec4 v0x558edafc2a40_0;
    %addi 1, 0, 3;
    %assign/vec4 v0x558edafc2a40_0, 0;
    %jmp T_2.7;
T_2.6 ;
    %load/vec4 v0x558edafc2980_0;
    %pad/u 32;
    %cmpi/e 1, 0, 32;
    %jmp/0xz  T_2.8, 4;
    %ix/load 4, 7, 0;
    %flag_set/imm 4, 0;
    %load/vec4a v0x558edafa1400, 4;
    %assign/vec4 v0x558edafc2480_0, 0;
    %jmp T_2.9;
T_2.8 ;
    %load/vec4 v0x558edafc2a40_0;
    %pad/u 32;
    %cmpi/e 8, 0, 32;
    %jmp/0xz  T_2.10, 4;
    %pushi/vec4 0, 0, 3;
    %assign/vec4 v0x558edafc2a40_0, 0;
    %jmp T_2.11;
T_2.10 ;
    %load/vec4 v0x558edafc2720_0;
    %pad/u 32;
    %cmpi/e 8, 0, 32;
    %jmp/0xz  T_2.12, 4;
    %pushi/vec4 0, 0, 3;
    %store/vec4 v0x558edafc2720_0, 0, 3;
T_2.12 ;
T_2.11 ;
T_2.9 ;
T_2.7 ;
T_2.5 ;
T_2.3 ;
    %load/vec4 v0x558edafc2a40_0;
    %load/vec4 v0x558edafc2720_0;
    %cmp/u;
    %jmp/0xz  T_2.14, 5;
    %load/vec4 v0x558edafc2720_0;
    %load/vec4 v0x558edafc2a40_0;
    %sub;
    %store/vec4 v0x558edafa05a0_0, 0, 3;
    %jmp T_2.15;
T_2.14 ;
    %load/vec4 v0x558edafc2720_0;
    %load/vec4 v0x558edafc2a40_0;
    %cmp/u;
    %jmp/0xz  T_2.16, 5;
    %load/vec4 v0x558edafc2a40_0;
    %load/vec4 v0x558edafc2720_0;
    %sub;
    %store/vec4 v0x558edafa05a0_0, 0, 3;
T_2.16 ;
T_2.15 ;
T_2.1 ;
    %jmp T_2;
    .thread T_2;
    .scope S_0x558edafa2a90;
T_3 ;
    %vpi_call 2 16 "$dumpfile", "retry_buffer.vcd" {0 0 0};
    %vpi_call 2 17 "$dumpvars" {0 0 0};
    %pushi/vec4 0, 0, 1;
    %assign/vec4 v0x558edafc4e00_0, 0;
    %pushi/vec4 0, 0, 1;
    %assign/vec4 v0x558edafc54b0_0, 0;
    %pushi/vec4 0, 0, 1;
    %assign/vec4 v0x558edafc4d60_0, 0;
    %pushi/vec4 0, 0, 1;
    %assign/vec4 v0x558edafc5410_0, 0;
    %pushi/vec4 0, 0, 1;
    %assign/vec4 v0x558edafc5320_0, 0;
    %pushi/vec4 0, 0, 12;
    %assign/vec4 v0x558edafc49e0_0, 0;
    %pushi/vec4 0, 0, 8;
    %assign/vec4 v0x558edafc4ab0_0, 0;
    %pushi/vec4 0, 0, 1;
    %assign/vec4 v0x558edafc4ea0_0, 0;
    %pushi/vec4 0, 0, 8;
    %assign/vec4 v0x558edafc4bd0_0, 0;
    %wait E_0x558edaf73170;
    %pushi/vec4 1, 0, 1;
    %assign/vec4 v0x558edafc4e00_0, 0;
    %pushi/vec4 0, 0, 1;
    %assign/vec4 v0x558edafc54b0_0, 0;
    %pushi/vec4 0, 0, 1;
    %assign/vec4 v0x558edafc4d60_0, 0;
    %pushi/vec4 0, 0, 1;
    %assign/vec4 v0x558edafc5410_0, 0;
    %pushi/vec4 0, 0, 1;
    %assign/vec4 v0x558edafc5320_0, 0;
    %pushi/vec4 0, 0, 12;
    %assign/vec4 v0x558edafc49e0_0, 0;
    %pushi/vec4 0, 0, 8;
    %assign/vec4 v0x558edafc4ab0_0, 0;
    %pushi/vec4 0, 0, 1;
    %assign/vec4 v0x558edafc4ea0_0, 0;
    %pushi/vec4 0, 0, 8;
    %assign/vec4 v0x558edafc4bd0_0, 0;
    %wait E_0x558edaf73170;
    %pushi/vec4 1, 0, 1;
    %assign/vec4 v0x558edafc4e00_0, 0;
    %pushi/vec4 1, 0, 1;
    %assign/vec4 v0x558edafc54b0_0, 0;
    %pushi/vec4 0, 0, 1;
    %assign/vec4 v0x558edafc4d60_0, 0;
    %pushi/vec4 0, 0, 1;
    %assign/vec4 v0x558edafc5410_0, 0;
    %pushi/vec4 0, 0, 1;
    %assign/vec4 v0x558edafc5320_0, 0;
    %pushi/vec4 0, 0, 12;
    %assign/vec4 v0x558edafc49e0_0, 0;
    %pushi/vec4 186, 0, 8;
    %assign/vec4 v0x558edafc4ab0_0, 0;
    %pushi/vec4 0, 0, 1;
    %assign/vec4 v0x558edafc4ea0_0, 0;
    %pushi/vec4 0, 0, 8;
    %assign/vec4 v0x558edafc4bd0_0, 0;
    %wait E_0x558edaf73170;
    %pushi/vec4 1, 0, 1;
    %assign/vec4 v0x558edafc4e00_0, 0;
    %pushi/vec4 0, 0, 1;
    %assign/vec4 v0x558edafc54b0_0, 0;
    %pushi/vec4 0, 0, 1;
    %assign/vec4 v0x558edafc4d60_0, 0;
    %pushi/vec4 0, 0, 1;
    %assign/vec4 v0x558edafc5410_0, 0;
    %pushi/vec4 0, 0, 1;
    %assign/vec4 v0x558edafc5320_0, 0;
    %pushi/vec4 0, 0, 12;
    %assign/vec4 v0x558edafc49e0_0, 0;
    %pushi/vec4 0, 0, 8;
    %assign/vec4 v0x558edafc4ab0_0, 0;
    %pushi/vec4 0, 0, 1;
    %assign/vec4 v0x558edafc4ea0_0, 0;
    %pushi/vec4 0, 0, 8;
    %assign/vec4 v0x558edafc4bd0_0, 0;
    %wait E_0x558edaf73170;
    %wait E_0x558edaf73170;
    %wait E_0x558edaf73170;
    %wait E_0x558edaf73170;
    %wait E_0x558edaf73170;
    %pushi/vec4 1, 0, 1;
    %assign/vec4 v0x558edafc4e00_0, 0;
    %pushi/vec4 0, 0, 1;
    %assign/vec4 v0x558edafc54b0_0, 0;
    %pushi/vec4 0, 0, 1;
    %assign/vec4 v0x558edafc4d60_0, 0;
    %pushi/vec4 0, 0, 1;
    %assign/vec4 v0x558edafc5410_0, 0;
    %pushi/vec4 0, 0, 1;
    %assign/vec4 v0x558edafc5320_0, 0;
    %pushi/vec4 0, 0, 12;
    %assign/vec4 v0x558edafc49e0_0, 0;
    %pushi/vec4 0, 0, 8;
    %assign/vec4 v0x558edafc4ab0_0, 0;
    %pushi/vec4 1, 0, 1;
    %assign/vec4 v0x558edafc4ea0_0, 0;
    %pushi/vec4 204, 0, 8;
    %assign/vec4 v0x558edafc4bd0_0, 0;
    %wait E_0x558edaf73170;
    %wait E_0x558edaf73170;
    %wait E_0x558edaf73170;
    %wait E_0x558edaf73170;
    %vpi_call 2 75 "$finish" {0 0 0};
    %end;
    .thread T_3;
    .scope S_0x558edafa2a90;
T_4 ;
    %pushi/vec4 0, 0, 1;
    %assign/vec4 v0x558edafc4c70_0, 0;
    %end;
    .thread T_4;
    .scope S_0x558edafa2a90;
T_5 ;
    %delay 1, 0;
    %load/vec4 v0x558edafc4c70_0;
    %inv;
    %assign/vec4 v0x558edafc4c70_0, 0;
    %jmp T_5;
    .thread T_5;
# The file index is used to find the file name in the following table.
:file_names 4;
    "N/A";
    "<interactive>";
    "retry_buffer_tb.v";
    "./RETRY_BUFFER.v";
